{
  "styles" : {
    "all" : "assets/styles/**/*.scss",
    "dest" : "dist/",
    "src" : "assets/styles/style.scss"
  },
  "scripts" : {
    "all" : "assets/scripts/**/*.js",
    "dest" : {
      "folder" : "dist/",
      "file" : "scripts.js",
      "minifiedFile": "scripts.min.js"
    },
    "src" : "./gulp_settings/jsfiles.json"
  },
  "images" : {
    "all" : "assets/images/*",
    "dest" : "dist/images"
  },
  "icons" : {
    "all" : "assets/icons/*",
    "dest" : "dist/icons"
  },
  "html" : ["*.php", "*.html", "**/*.php", "**/*.html"],
  "proxy" : "localhost:8888/boilerplate"
}